Uebungsblatt_3.knit
…
Mit summarize koennen Sie eine Tabelle aller EU-Laender erstellen und von der Schuldenquote (debt_share_country) jedes Landes den Mittelwert (Mittel), die Standardabweichung (SD), das Minimum (Min), Median (Median) und Maximum (Max) ausgeben (in Klammern steht der Name wie Sie die Variable nennen sollen). Runden Sie alle Werte auf zwei Nachkommastellen. Achten Sie darauf, dass NAs nicht in ihre Berechnungen aufgenommen werden. Nutzen Sie den Datensatz eu_makro und gruppieren Sie ihre Daten nach Laendern. Sortieren Sie ihre deskriptive Tabelle absteigend nach dem Median der Schuldenquote. Speichern Sie ihre Daten in deskriptives ab und geben Sie anschliessend deskriptives aus.

deskriptives <- eu_makro %>%
group_by(country) %>%
summarize(Mittel = round(mean(debt_share_country, na.rm=TRUE),2),
          SD = round(sd(debt_share_country, na.rm=TRUE),2),
          Min = round(min(debt_share_country, na.rm=TRUE),2),
          Median = round(median(debt_share_country, na.rm=TRUE),2),
          Max = round(max(debt_share_country, na.rm=TRUE),2)) %>%
  arrange(desc(Median))

deskriptives

## # A tibble: 28 x 6
##    country  Mittel    SD   Min Median   Max
##    <chr>     <dbl> <dbl> <dbl>  <dbl> <dbl>
##  1 Italy      1.12  0.12  0.91   1.11  1.33
##  2 Greece     1.27  0.34  0.96   1.07  1.8 
##  3 Belgium    1.06  0.11  0.87   1.06  1.3 
##  4 Austria    0.73  0.08  0.63   0.68  0.85
##  5 Portugal   0.82  0.32  0.5    0.68  1.31
##  6 Hungary    0.67  0.09  0.54   0.67  0.81
##  7 France     0.73  0.15  0.57   0.66  0.97
##  8 Germany    0.66  0.08  0.54   0.65  0.81
##  9 Malta      0.61  0.1   0.34   0.64  0.71
## 10 Spain      0.65  0.21  0.36   0.61  1   
## # ... with 18 more rows
…
Geometry: Wir lernen verschiedene Arten von Grafiken kennen, z.B. Streudiagramm, Histogramm, Liniendiagramm

Aesthetic: Definiert die x-Achse und y-Achse. Weiterhin koennen wir Farben und Formen unserer Grafik bestimmen, alles abhaengig von der Geometry, welche wir waehlen

scale: Definieren wie die Skalierung unserer x-Achse und y-Achse sein soll

Lassen Sie uns direkt mit den ersten Grafiken starten:

Um ggplot besser zu verstehen wollen wir erste Grafiken nur fuer Deutschland erstellen. Filtern Sie hierfuer den eu_makro Datensatz nach Germany und speichern Sie diesen Datensatz als deutschland ab.

deutschland<- eu_makro %>%
  filter(country=="Germany")
deutschland

## # A tibble: 27 x 12
##    cntry country  year   pop unempl   gdp gov_debt date       exports imports
##    <chr> <chr>   <dbl> <dbl>  <dbl> <dbl>    <dbl> <date>       <dbl>   <dbl>
##  1 DEU   Germany  1991  80.0    5.6 1507.      NA  1991-01-01    358.    365.
##  2 DEU   Germany  1992  80.6    6.6 1641.      NA  1992-01-01    365.    374.
##  3 DEU   Germany  1993  81.2    7.8 1766.      NA  1993-01-01    359.    358.
##  4 DEU   Germany  1994  81.4    8.4 1860.      NA  1994-01-01    393.    389.
##  5 DEU   Germany  1995  81.7    8.2 1982.    1080. 1995-01-01    436.    427.
##  6 DEU   Germany  1996  81.9    8.9 1973.    1116. 1996-01-01    452.    436.
##  7 DEU   Germany  1997  82.0    9.6 1959.    1142. 1997-01-01    497.    474.
##  8 DEU   Germany  1998  82.0    9.4 2005.    1199. 1998-01-01    530.    504.
##  9 DEU   Germany  1999  82.1    8.6 2065.    1239. 1999-01-01    558.    544.
## 10 DEU   Germany  2000  82.2    7.9 2116.    1246. 2000-01-01    653.    647.
## # ... with 17 more rows, and 2 more variables: debt_share_country <dbl>,
## #   debt_share_year <dbl>
…
